module gitlab.com/gfxlabs/frandw

go 1.17

require (
	github.com/aead/chacha20 v0.0.0-20180709150244-8b13a72661da // indirect
	golang.org/x/sys v0.0.0-20190626221950-04f50cda93cb // indirect
	lukechampine.com/frand v1.4.2 // indirect
)
